{
	"id": "8ca98e8c-a969-4dce-bff8-53b04f740f6b",
	"name": "Task Env",
	"values": [
		{
			"key": "User_Service_URL",
			"value": "http://localhost:5001",
			"type": "default",
			"enabled": true
		},
		{
			"key": "Task_Service_URL",
			"value": "http://localhost:5002",
			"type": "default",
			"enabled": true
		},
		{
			"key": "Submission_Service_URL",
			"value": "http://localhost:5003",
			"type": "default",
			"enabled": true
		},
		{
			"key": "Token",
			"value": "eyJhbGciOiJIUzUxMiJ9.eyJpYXQiOjE3MDgyNjMwMjUsImV4cCI6MTcwODM0OTQyNSwiZW1haWwiOiJuaWNob2xhc2FkbWluQGdtYWlsLmNvbSIsImF1dGhvcml0aWVzIjoiIn0.cCxmkmlI_oxgNmnAhQEX0eTnCI5WBTStl9ehfZOOiaaq7yXI1PD7-w0ng3wa2Wjh21ZvPDyILuVcN7g6mH_7gg",
			"type": "default",
			"enabled": true
		}
	],
	"_postman_variable_scope": "environment",
	"_postman_exported_at": "2024-02-19T04:49:02.669Z",
	"_postman_exported_using": "Postman/10.23.1"
}